la0_waveform.vcd
$date today $end
$timescale 1 ns $end
$scope module top $end
$var wire 8 0 csi_rxd0_hs_i $end
$var wire 8 1 csi_rxd1_hs_i $end
$var wire 8 2 csi_rxd2_hs_i $end
$var wire 8 3 csi_rxd3_hs_i $end
$var wire 8 4 mipi_byte_data $end
$var wire 8 5 mipi_byte_data2 $end
$upscope $end
$enddefinitions $end
#0
$dumpvars
bx 0
bx 1
bx 2
bx 3
bx 4
bx 5
$end
#0 $dumpon
b00010001 0
b00000000 1
b00000000 2
b00000000 3
b01001000 4
b00010010 5
#1
b11100001 0
b01000100 4
b00010001 5
#2
b00101000 0
b00111000 4
b10001110 5
#3
b00010001 0
b01001010 4
b00010010 5
#4
b00100001 0
b01000100 4
b00010001 5
#5
b00010001 0
b01001000 4
b00010010 5
#6
b10100001 0
b01000100 4
b00010001 5
#7
b00100001 0
b01101000 4
b00011010 5
#8
b00000001 0
b01001000 4
b00010010 5
#9
b00100001 0
b01000000 4
b00010000 5
#10
b00000001 0
b01001000 4
b00010010 5
#11
b10010001 0
b01000000 4
b00010000 5
#12
b00100100 0
b00100100 4
b01001001 5
#13
b11110001 0
b01001001 4
b00010010 5
#14
b00010000 0
b00111100 4
b00001111 5
#15
b00010001 0
b01000100 4
b00010001 5
#16
b11000001 0
#17
b00010001 0
b01110000 4
b00011100 5
#18
b00000001 0
b01000100 4
b00010001 5
#19
b00010001 0
b01000000 4
b00010000 5
#20
b00000001 0
b01000100 4
b00010001 5
#21
b10100001 0
b01000000 4
b00010000 5
#22
b00100110 0
b10101000 4
b01101010 5
#23
b00000001 0
b01001001 4
b00010010 5
#24
b00100001 0
b01000000 4
b00010000 5
#25
b00000001 0
b01001000 4
b00010010 5
#26
b10000001 0
b01000000 4
b00010000 5
#27
b00101101 0
b01100000 4
b11011000 5
#28
b00100001 0
b01001011 4
b00010010 5
#29
b00110001 0
b01001000 4
#30
b00010001 0
b01001100 4
b00010011 5
#31
b00000001 0
b01000100 4
b00010001 5
#32
b00100101 0
b01000000 4
b01010000 5
#33
b00010001 0
b01001001 4
b00010010 5
#34
b00110001 0
b01000100 4
b00010001 5
#35
b00000001 0
b01001100 4
b00010011 5
#36
b11110001 0
b01000000 4
b00010000 5
#37
b00111001 0
b01111100 4
b10011111 5
#38
b00010001 0
b01001110 4
b00010011 5
#39
b00110001 0
b01000100 4
b00010001 5
#40
b00010001 0
b01001100 4
b00010011 5
#41
b01000001 0
b01000100 4
b00010001 5
#42
b00100100 0
b00010000 4
b01000100 5
#43
b00100001 0
b01001001 4
b00010010 5
#44
b01001000 4
#45
b00010001 0
#46
b01110001 0
b01000100 4
b00010001 5
#47
b00110010 0
b10011100 4
b00100111 5
#48
b00010001 0
b01001100 4
b00010011 5
#49
b00110001 0
b01000100 4
b00010001 5
#50
b00000001 0
b01001100 4
b00010011 5
#51
b10000001 0
b01000000 4
b00010000 5
#52
b00101100 0
b00100000 4
b11001000 5
#53
b00010001 0
b01001011 4
b00010010 5
#54
b01000100 4
b00010001 5
#55
b00000001 0
#56
b01000001 0
b01000000 4
b00010000 5
#57
b00111101 0
b01010000 4
b11010100 5
#58
b00010001 0
b01001111 4
b00010011 5
#59
b00110001 0
b01000100 4
b00010001 5
#60
b00010001 0
b01001100 4
b00010011 5
#61
b11010001 0
b01000100 4
b00010001 5
#62
b00101110 0
b10110100 4
b11101101 5
#63
b00010001 0
b01001011 4
b00010010 5
#64
b01000100 4
b00010001 5
#65
b00100001 0
#66
b00110001 0
b01001000 4
b00010010 5
#67
b00100001 0
b01001100 4
b00010011 5
#68
b00000001 0
b01001000 4
b00010010 5
#69
b00100001 0
b01000000 4
b00010000 5
#70
b00000001 0
b01001000 4
b00010010 5
#71
b00110001 0
b01000000 4
b00010000 5
#72
b00011100 0
b00001100 4
b11000011 5
#73
b00010001 0
b01000111 4
b00010001 5
#74
b00100001 0
b01000100 4
#75
b00000001 0
b01001000 4
b00010010 5
#76
b00110001 0
b01000000 4
b00010000 5
#77
b00101100 0
b00001100 4
b11000011 5
#78
b00000001 0
b01001011 4
b00010010 5
#79
b00100001 0
b01000000 4
b00010000 5
#80
b00000001 0
b01001000 4
b00010010 5
#81
b11010001 0
b01000000 4
b00010000 5
#82
b00010011 0
b11110100 4
b00111101 5
#83
b00000001 0
b01000100 4
b00010001 5
#84
b00100001 0
b01000000 4
b00010000 5
#85
b00010001 0
b01001000 4
b00010010 5
#86
b11010001 0
b01000100 4
b00010001 5
#87
b00100000 0
b00110100 4
b00001101 5
#88
b00000001 0
b01001000 4
b00010010 5
#89
b00110001 0
b01000000 4
b00010000 5
#90
b00010001 0
b01001100 4
b00010011 5
#91
b10110001 0
b01000100 4
b00010001 5
#92
b00100000 0
b00101100 4
b00001011 5
#93
b00010001 0
b01001000 4
b00010010 5
#94
b00100001 0
b01000100 4
b00010001 5
#95
b00010001 0
b01001000 4
b00010010 5
#96
b10000001 0
b01000100 4
b00010001 5
#97
b00100000 0
b00100000 4
b00001000 5
#98
b00010001 0
b01001000 4
b00010010 5
#99
b00100001 0
b01000100 4
b00010001 5
#100
b00000001 0
b01001000 4
b00010010 5
#101
b11010001 0
b01000000 4
b00010000 5
#102
b00011000 0
b00110100 4
b10001101 5
#103
b00010001 0
b01000110 4
b00010001 5
#104
b00100001 0
b01000100 4
#105
b00010001 0
b01001000 4
b00010010 5
#106
b11100001 0
b01000100 4
b00010001 5
#107
b00100000 0
b00111000 4
b00001110 5
#108
b00010001 0
b01001000 4
b00010010 5
#109
b00100001 0
b01000100 4
b00010001 5
#110
b00010001 0
b01001000 4
b00010010 5
#111
b01000100 4
b00010001 5
#112
b00100001 0
#113
b00000001 0
b01001000 4
b00010010 5
#114
b00100001 0
b01000000 4
b00010000 5
#115
b00010001 0
b01001000 4
b00010010 5
#116
b10010001 0
b01000100 4
b00010001 5
#117
b00100010 0
b10100100 4
b00101001 5
#118
b00000001 0
b01001000 4
b00010010 5
#119
b00100001 0
b01000000 4
b00010000 5
#120
b00010001 0
b01001000 4
b00010010 5
#121
b01000001 0
b01000100 4
b00010001 5
#122
b00101011 0
b11010000 4
b10110100 5
#123
b00000001 0
b01001010 4
b00010010 5
#124
b00100001 0
b01000000 4
b00010000 5
#125
b00000001 0
b01001000 4
b00010010 5
#126
b11110001 0
b01000000 4
b00010000 5
#127
b00010001 0
b01111100 4
b00011111 5
#128
b00000001 0
b01000100 4
b00010001 5
#129
b00010001 0
b01000000 4
b00010000 5
#130
b00000001 0
b01000100 4
b00010001 5
#131
b01000000 4
b00010000 5
#132
b00011011 0
b11000000 4
b10110000 5
#133
b00000001 0
b01000110 4
b00010001 5
#134
b00100001 0
b01000000 4
b00010000 5
#135
b00010001 0
b01001000 4
b00010010 5
#136
b01110001 0
b01000100 4
b00010001 5
#137
b00100010 0
b10011100 4
b00100111 5
#138
b00000001 0
b01001000 4
b00010010 5
#139
b00010001 0
b01000000 4
b00010000 5
#140
b00000001 0
b01000100 4
b00010001 5
#141
b10010001 0
b01000000 4
b00010000 5
#142
b00101111 0
b11100100 4
b11111001 5
#143
b00000001 0
b01001011 4
b00010010 5
#144
b00100001 0
b01000000 4
b00010000 5
#145
b00000001 0
b01001000 4
b00010010 5
#146
b10110001 0
b01000000 4
b00010000 5
#147
b00101101 0
b01101100 4
b11011011 5
#148
b00000001 0
b01001011 4
b00010010 5
#149
b00010001 0
b01000000 4
b00010000 5
#150
b00000001 0
b01000100 4
b00010001 5
#151
b11000001 0
b01000000 4
b00010000 5
#152
b00010111 0
b11110000 4
b01111100 5
#153
b00100001 0
b01000101 4
b00010001 5
#154
b00110001 0
b01001000 4
b00010010 5
#155
b00010001 0
b01001100 4
b00010011 5
#156
b01100001 0
b01000100 4
b00010001 5
#157
b00010100 0
b00011000 4
b01000110 5
#158
b00000001 0
b01000101 4
b00010001 5
#159
b00010001 0
b01000000 4
b00010000 5
#160
b00000001 0
b01000100 4
b00010001 5
#161
b11110001 0
b01000000 4
b00010000 5
#162
b00101011 0
b11111100 4
b10111111 5
#163
b00000001 0
b01001010 4
b00010010 5
#164
b00010001 0
b01000000 4
b00010000 5
#165
b00000001 0
b01000100 4
b00010001 5
#166
b01000001 0
b01000000 4
b00010000 5
#167
b00010110 0
b10010000 4
b01100100 5
#168
b00000001 0
b01000101 4
b00010001 5
#169
b00010001 0
b01000000 4
b00010000 5
#170
b01000100 4
b00010001 5
#171
b00000001 0
#172
b00010100 0
b00000000 4
b01000000 5
#173
b00000001 0
b01000101 4
b00010001 5
#174
b01000000 4
b00010000 5
#176
b00100001 0
#177
b00011010 0
b10001000 4
b10100010 5
#178
b00000001 0
b01000110 4
b00010001 5
#179
b00010001 0
b01000000 4
b00010000 5
#180
b00000001 0
b01000100 4
b00010001 5
#181
b10010001 0
b01000000 4
b00010000 5
#182
b00011101 0
b01100100 4
b11011001 5
#183
b00000001 0
b01000111 4
b00010001 5
#184
b00110001 0
b01000000 4
b00010000 5
#185
b00000001 0
b01001100 4
b00010011 5
#186
b10110001 0
b01000000 4
b00010000 5
#187
b00011000 0
b00101100 4
b10001011 5
#188
b00000001 0
b01000110 4
b00010001 5
#189
b00010001 0
b01000000 4
b00010000 5
#190
b01000100 4
b00010001 5
#191
b00100001 0
#192
b00010101 0
b01001000 4
b01010010 5
#193
b00000001 0
b01000101 4
b00010001 5
#194
b01000000 4
b00010000 5
#196
b11100001 0
#197
b00010011 0
b11111000 4
b00111110 5
#198
b01011010 0
b10000100 4
b10100001 5
#199
b00001000 0
b00010110 4
b10000101 5
#200
b00000000 0
b00000010 4
b00000000 5
#201
b00000000 4
#463
b00011100 0
b11000000 5
#464
b00000000 0
b00000111 4
b00000001 5
#465
b00000000 4
b00000000 5
#477
b10000000 0
#478
b10111011 0
b11100000 4
b10111000 5
#479
b00000010 0
b10101110 4
b00101011 5
#480
b01100100 0
b00000000 4
b01000000 5
#481
b10110000 0
b00011001 4
b00000110 5
#482
b11010011 0
b11101100 4
b00111011 5
#483
b11010000 0
b00110100 4
b00001101 5
#486
b11000000 0
#487
b11011110 0
b10110000 4
b11101100 5
#488
b11010000 0
b00110111 4
b00001101 5
#489
b00110100 4
#491
b01010000 0
#492
b11011001 0
b01010100 4
b10010101 5
#493
b11100000 0
b00110110 4
b00001101 5
#494
b11010000 0
b00111000 4
b00001110 5
#495
b00110100 4
b00001101 5
#496
b00000000 0
#497
b11011001 0
b01000000 4
b10010000 5
#498
b11100000 0
b00110110 4
b00001101 5
#499
b11010000 0
b00111000 4
b00001110 5
#500
b00110100 4
b00001101 5
#501
b00100000 0
#502
b11011001 0
b01001000 4
b10010010 5
#503
b11010000 0
b00110110 4
b00001101 5
#504
b00110100 4
#507
b11010010 0
b10110100 4
b00101101 5
#508
b11010000 0
b00110100 4
b00001101 5
#512
b11011110 0
b10110100 4
b11101101 5
#513
b11010000 0
b00110111 4
b00001101 5
#514
b00110100 4
#516
b11100000 0
#517
b11011111 0
b11111000 4
b11111110 5
#518
b11100000 0
b00110111 4
b00001101 5
#519
b11010000 0
b00111000 4
b00001110 5
#520
b11100000 0
b00110100 4
b00001101 5
#521
b01010000 0
b00111000 4
b00001110 5
#522
b11100111 0
b11010100 4
b01110101 5
#523
b11010000 0
b00111001 4
b00001110 5
#524
b00110100 4
b00001101 5
#526
b11000000 0
#527
b11010101 0
b01110000 4
b01011100 5
#528
b11100000 0
b00110101 4
b00001101 5
#529
b11010000 0
b00111000 4
b00001110 5
#530
b11100000 0
b00110100 4
b00001101 5
#531
b01010000 0
b00111000 4
b00001110 5
#532
b11010001 0
b01010100 4
b00010101 5
#533
b11010000 0
b00110100 4
b00001101 5
#535
b11100000 0
#536
b00111000 4
b00001110 5
#537
b11010000 0
#538
b00110100 4
b00001101 5
#540
b11100000 0
#541
b00111000 4
b00001110 5
#542
b11010111 0
b11111000 4
b01111110 5
#543
b11100000 0
b00110101 4
b00001101 5
#544
b11010000 0
b00111000 4
b00001110 5
#545
b11100000 0
b00110100 4
b00001101 5
#546
b01100000 0
b00111000 4
b00001110 5
#547
b11011011 0
b11011000 4
b10110110 5
#548
b11010000 0
b00110110 4
b00001101 5
#549
b00110100 4
#550
b11100000 0
#551
b10100000 0
b00111000 4
b00001110 5
#552
b11010101 0
b01101000 4
b01011010 5
#553
b11010000 0
b00110101 4
b00001101 5
#554
b00110100 4
#555
b11100000 0
#556
b11110000 0
b00111000 4
b00001110 5
#557
b11010011 0
b11111100 4
b00111111 5
#558
b11100000 0
b00110100 4
b00001101 5
#559
b11010000 0
b00111000 4
b00001110 5
#560
b00110100 4
b00001101 5
#561
b00000000 0
#562
b11011111 0
b11000000 4
b11110000 5
#563
b11100000 0
b00110111 4
b00001101 5
#564
b11010000 0
b00111000 4
b00001110 5
#565
b11100000 0
b00110100 4
b00001101 5
#566
b01000000 0
b00111000 4
b00001110 5
#567
b11010110 0
b10010000 4
b01100100 5
#568
b11110000 0
b00110101 4
b00001101 5
#569
b11010000 0
b00111100 4
b00001111 5
#570
b11100000 0
b00110100 4
b00001101 5
#571
b01110000 0
b00111000 4
b00001110 5
#572
b11010001 0
b01011100 4
b00010111 5
#573
b11110000 0
b00110100 4
b00001101 5
#574
b11100000 0
b00111100 4
b00001111 5
#575
b00111000 4
b00001110 5
#576
b00110000 0
#577
b11010101 0
b01001100 4
b01010011 5
#578
b11100000 0
b00110101 4
b00001101 5
#579
b11010000 0
b00111000 4
b00001110 5
#580
b11100000 0
b00110100 4
b00001101 5
#581
b00010000 0
b00111000 4
b00001110 5
#582
b11010010 0
b10000100 4
b00100001 5
#583
b11010000 0
b00110100 4
b00001101 5
#585
b11100000 0
#586
b00111000 4
b00001110 5
#587
b11010010 0
b10111000 4
b00101110 5
#588
b11100000 0
b00110100 4
b00001101 5
#589
b11010000 0
b00111000 4
b00001110 5
#590
b11100000 0
b00110100 4
b00001101 5
#591
b00000000 0
b00111000 4
b00001110 5
#592
b11101110 0
b10000000 4
b11100000 5
#593
b11100000 0
b00111011 4
b00001110 5
#594
b11010000 0
b00111000 4
#595
b11110000 0
b00110100 4
b00001101 5
#596
b11000000 0
b00111100 4
b00001111 5
#597
b11010010 0
b10110000 4
b00101100 5
#598
b11110000 0
b00110100 4
b00001101 5
#599
b11010000 0
b00111100 4
b00001111 5
#600
b11110000 0
b00110100 4
b00001101 5
#601
b00110000 0
b00111100 4
b00001111 5
#602
b11100011 0
b11001100 4
b00110011 5
#603
b11110000 0
b00111000 4
b00001110 5
#604
b11100000 0
b00111100 4
b00001111 5
#605
b11110000 0
b00111000 4
b00001110 5
#606
b11010000 0
b00111100 4
b00001111 5
#607
b11010100 0
b00110100 4
b01001101 5
#608
b11110000 0
b00110101 4
b00001101 5
#609
b11100000 0
b00111100 4
b00001111 5
#610
b11110000 0
b00111000 4
b00001110 5
#611
b00110000 0
b00111100 4
b00001111 5
#612
b11101000 0
b00001100 4
b10000011 5
#613
b00000000 0
b00111010 4
b00001110 5
#614
b11100001 0
b01000000 4
b00010000 5
#615
b00000000 0
b00111000 4
b00001110 5
#616
b00000001 0
b01000000 4
b00010000 5
#617
b11100001 0
#618
b11100000 0
b00111000 4
b00001110 5
#619
b11010000 0
#620
b11110000 0
b00110100 4
b00001101 5
#621
b11100000 0
b00111100 4
b00001111 5
#622
b11010111 0
b11111000 4
b01111110 5
#623
b11110000 0
b00110101 4
b00001101 5
#624
b11100000 0
b00111100 4
b00001111 5
#625
b11110000 0
b00111000 4
b00001110 5
#626
b00111100 4
b00001111 5
#627
b11011000 0
b10001111 5
#628
b11100000 0
b00110110 4
b00001101 5
#629
b11010000 0
b00111000 4
b00001110 5
#630
b11100000 0
b00110100 4
b00001101 5
#631
b10010000 0
b00111000 4
b00001110 5
#632
b11011110 0
b10100100 4
b11101001 5
#633
b11100000 0
b00110111 4
b00001101 5
#634
b11010000 0
b00111000 4
b00001110 5
#635
b11100000 0
b00110100 4
b00001101 5
#636
b00110000 0
b00111000 4
b00001110 5
#637
b11011001 0
b01001100 4
b10010011 5
#638
b11100000 0
b00110110 4
b00001101 5
#639
b11010000 0
b00111000 4
b00001110 5
#640
b11100000 0
b00110100 4
b00001101 5
#641
b00111000 4
b00001110 5
#642
b11010110 0
b10111000 4
b01101110 5
#643
b11100000 0
b00110101 4
b00001101 5
#644
b11010000 0
b00111000 4
b00001110 5
#645
b11110000 0
b00110100 4
b00001101 5
#646
b01110000 0
b00111100 4
b00001111 5
#647
b11010101 0
b01011100 4
b01010111 5
#648
b11100000 0
b00110101 4
b00001101 5
#649
b11010000 0
b00111000 4
b00001110 5
#650
b11100000 0
b00110100 4
b00001101 5
#651
b00100000 0
b00111000 4
b00001110 5
#652
b11011011 0
b11001000 4
b10110010 5
#653
b11100000 0
b00110110 4
b00001101 5
#654
b00111000 4
b00001110 5
#656
b11010000 0
#657
b11011000 0
b00110100 4
b10001101 5
#658
b11110000 0
b00110110 4
b00001101 5
#659
b11100000 0
b00111100 4
b00001111 5
#660
b11110000 0
b00111000 4
b00001110 5
#661
b01110000 0
b00111100 4
b00001111 5
#662
b11101001 0
b01011100 4
b10010111 5
#663
b00000000 0
b00111010 4
b00001110 5
#664
b11100001 0
b01000000 4
b00010000 5
#665
b00000000 0
b00111000 4
b00001110 5
#666
b01010001 0
b01000000 4
b00010000 5
#667
b11100101 0
b01010100 4
b01010101 5
#668
b00000000 0
b00111001 4
b00001110 5
#669
b11100001 0
b01000000 4
b00010000 5
#670
b00000000 0
b00111000 4
b00001110 5
#671
b01110001 0
b01000000 4
b00010000 5
#672
b11111011 0
b11011100 4
b10110111 5
#673
b11110000 0
b00111110 4
b00001111 5
#674
b11100000 0
b00111100 4
#675
b00010000 0
b00111000 4
b00001110 5
#676
b01000001 0
b01000100 4
b00010001 5
#677
b11100101 0
b01010000 4
b01010100 5
#678
b00010000 0
b00111001 4
b00001110 5
#679
b11110001 0
b01000100 4
b00010001 5
#680
b00010000 0
b00111100 4
b00001111 5
#681
b00010001 0
b01000100 4
b00010001 5
#682
b11100101 0
b01010001 5
#683
b00010000 0
b00111001 4
b00001110 5
#684
b11110001 0
b01000100 4
b00010001 5
#685
b00000000 0
b00111100 4
b00001111 5
#686
b01010001 0
b01000000 4
b00010000 5
#687
b11110100 0
b00010100 4
b01000101 5
#688
b00010000 0
b00111101 4
b00001111 5
#689
b11110001 0
b01000100 4
b00010001 5
#690
b00010000 0
b00111100 4
b00001111 5
#691
b01010001 0
b01000100 4
b00010001 5
#692
b11110001 0
b01010100 4
b00010101 5
#693
b00100000 0
b00111100 4
b00001111 5
#694
b00000001 0
b01001000 4
b00010010 5
#695
b00010001 0
b01000000 4
b00010000 5
#696
b00000001 0
b01000100 4
b00010001 5
#697
b11111001 0
b01000000 4
b10010000 5
#698
b00010000 0
b00111110 4
b00001111 5
#699
b11110001 0
b01000100 4
b00010001 5
#700
b00000000 0
b00111100 4
b00001111 5
#701
b01100001 0
b01000000 4
b00010000 5
#702
b11111101 0
b01011000 4
b11010110 5
#703
b00010000 0
b00111111 4
b00001111 5
#704
b11110001 0
b01000100 4
b00010001 5
#705
b00010000 0
b00111100 4
b00001111 5
#706
b01010001 0
b01000100 4
b00010001 5
#707
b11100110 0
b10010100 4
b01100101 5
#708
b00000000 0
b00111001 4
b00001110 5
#709
b11110001 0
b01000000 4
b00010000 5
#710
b00100000 0
b00111100 4
b00001111 5
#711
b10100001 0
b01001000 4
b00010010 5
#712
b00000000 0
b00101000 4
b00001010 5
#713
b00010001 0
b01000000 4
b00010000 5
#714
b11100001 0
b01000100 4
b00010001 5
#715
b00100000 0
b00111000 4
b00001110 5
#716
b11000001 0
b01001000 4
b00010010 5
#717
b11110011 0
b11110000 4
b00111100 5
#718
b00100000 0
b00111100 4
b00001111 5
#719
b11110001 0
b01001000 4
b00010010 5
#720
b00010000 0
b00111100 4
b00001111 5
#721
b01110001 0
b01000100 4
b00010001 5
#722
b11111010 0
b10011100 4
b10100111 5
#723
b00000000 0
b00111110 4
b00001111 5
#724
b11110001 0
b01000000 4
b00010000 5
#725
b00010000 0
b00111100 4
b00001111 5
#726
b11000001 0
b01000100 4
b00010001 5
#727
b11111111 0
b11110000 4
b11111100 5
#728
b00100000 0
b00111111 4
b00001111 5
#729
b11110001 0
b01001000 4
b00010010 5
#730
b00010000 0
b00111100 4
b00001111 5
#731
b00010001 0
b01000100 4
b00010001 5
#732
b00001100 0
b00000100 4
b11000001 5
#733
b00010001 0
b01000011 4
b00010000 5
#734
b11100001 0
b01000100 4
b00010001 5
#735
b00010000 0
b00111000 4
b00001110 5
#736
b11010001 0
b01000100 4
b00010001 5
#737
b11110011 0
b11110100 4
b00111101 5
#738
b00010000 0
b00111100 4
b00001111 5
#739
b11110001 0
b01000100 4
b00010001 5
#740
b00100000 0
b00111100 4
b00001111 5
#741
b11110001 0
b01001000 4
b00010010 5
#742
b11110010 0
b10111100 4
b00101111 5
#743
b00010000 0
b00111100 4
b00001111 5
#744
b11110001 0
b01000100 4
b00010001 5
#745
b00010000 0
b00111100 4
b00001111 5
#746
b00110001 0
b01000100 4
b00010001 5
#747
b11110110 0
b10001100 4
b01100011 5
#748
b00110000 0
b00111101 4
b00001111 5
#749
b00000001 0
b01001100 4
b00010011 5
#750
b00100001 0
b01000000 4
b00010000 5
#751
b01001000 4
b00010010 5
#752
b00001010 0
b10001000 4
b10100010 5
#753
b00110001 0
b01000010 4
b00010000 5
#754
b00000001 0
b01001100 4
b00010011 5
#755
b00100001 0
b01000000 4
b00010000 5
#756
b01010001 0
b01001000 4
b00010010 5
#757
b11111001 0
b01010100 4
b10010101 5
#758
b00100000 0
b00111110 4
b00001111 5
#759
b00000001 0
b01001000 4
b00010010 5
#760
b00110001 0
b01000000 4
b00010000 5
#761
b00100001 0
b01001100 4
b00010011 5
#762
b11110000 0
b00001000 4
b00000010 5
#763
b00100000 0
b00111100 4
b00001111 5
#764
b11110001 0
b01001000 4
b00010010 5
#765
b00100000 0
b00111100 4
b00001111 5
#766
b11110001 0
b01001000 4
b00010010 5
#767
b00001010 0
b10111100 4
b10101111 5
#768
b00100001 0
b01000010 4
b00010000 5
#769
b11110001 0
b01001000 4
b00010010 5
#770
b00010000 0
b00111100 4
b00001111 5
#771
b10000001 0
b01000100 4
b00010001 5
#772
b00001110 0
b10100000 4
b11101000 5
#773
b00100001 0
b01000011 4
b00010000 5
#774
b00000001 0
b01001000 4
b00010010 5
#775
b00100001 0
b01000000 4
b00010000 5
#776
b10000001 0
b01001000 4
b00010010 5
#777
b11111100 0
b00100000 4
b11001000 5
#778
b00010000 0
b00111111 4
b00001111 5
#779
b11100001 0
b01000100 4
b00010001 5
#780
b00000000 0
b00111000 4
b00001110 5
#781
b00000001 0
b01000000 4
b00010000 5
#782
b11101000 0
b00000000 4
b10000000 5
#783
b11110000 0
b00111010 4
b00001110 5
#784
b11100000 0
b00111100 4
b00001111 5
#785
b00000000 0
b00111000 4
b00001110 5
#786
b10110001 0
b01000000 4
b00010000 5
#787
b11100111 0
b11101100 4
b01111011 5
#788
b00000000 0
b00111001 4
b00001110 5
#789
b11100001 0
b01000000 4
b00010000 5
#790
b00100000 0
b00111000 4
b00001110 5
#791
b01110001 0
b01001000 4
b00010010 5
#792
b00001111 0
b11011100 4
b11110111 5
#793
b00100001 0
b01000011 4
b00010000 5
#794
b00000001 0
b01001000 4
b00010010 5
#795
b00110001 0
b01000000 4
b00010000 5
#796
b01000001 0
b01001100 4
b00010011 5
#797
b00000001 0
b01010000 4
b00010100 5
#798
b00110001 0
b01000000 4
b00010000 5
#799
b00000001 0
b01001100 4
b00010011 5
#800
b01000001 0
b01000000 4
b00010000 5
#801
b00100001 0
b01010000 4
b00010100 5
#802
b00000111 0
b11001000 4
b01110010 5
#803
b00100001 0
b01000001 4
b00010000 5
#804
b11110001 0
b01001000 4
b00010010 5
#805
b00110000 0
b00111100 4
b00001111 5
#806
b00110001 0
b01001100 4
b00010011 5
#807
b00000111 0
b11001100 4
b01110011 5
#808
b00110001 0
b01000001 4
b00010000 5
#809
b00010001 0
b01001100 4
b00010011 5
#810
b00110001 0
b01000100 4
b00010001 5
#811
b11000001 0
b01001100 4
b00010011 5
#812
b00000010 0
b10110000 4
b00101100 5
#813
b01010001 0
b01000000 4
b00010000 5
#814
b00010001 0
b01010100 4
b00010101 5
#815
b01000001 0
b01000100 4
b00010001 5
#816
b00100001 0
b01010000 4
b00010100 5
#817
b00000000 0
b00001000 4
b00000010 5
#818
b01000001 0
b01000000 4
b00010000 5
#819
b00000001 0
b01010000 4
b00010100 5
#820
b01010001 0
b01000000 4
b00010000 5
#821
b00010001 0
b01010100 4
b00010101 5
#822
b00000110 0
b10000100 4
b01100001 5
#823
b01000001 0
b01000001 4
b00010000 5
#824
b00010001 0
b01010000 4
b00010100 5
#825
b00110001 0
b01000100 4
b00010001 5
#826
b10110001 0
b01001100 4
b00010011 5
#827
b00010100 0
b00101100 4
b01001011 5
#828
b01000001 0
b01000101 4
b00010001 5
#829
b00010001 0
b01010000 4
b00010100 5
#830
b01000001 0
b01000100 4
b00010001 5
#831
b00110001 0
b01010000 4
b00010100 5
#832
b00010111 0
b11001100 4
b01110011 5
#833
b00110001 0
b01000101 4
b00010001 5
#834
b00010001 0
b01001100 4
b00010011 5
#835
b01010001 0
b01000100 4
b00010001 5
#836
b11000001 0
b01010100 4
b00010101 5
#837
b00010001 0
b01110000 4
b00011100 5
#838
b01010001 0
b01000100 4
b00010001 5
#839
b00010001 0
b01010100 4
b00010101 5
#840
b01000001 0
b01000100 4
b00010001 5
#841
b11010001 0
b01010000 4
b00010100 5
#842
b00011101 0
b01110100 4
b11011101 5
#843
b01010001 0
b01000111 4
b00010001 5
#844
b00010001 0
b01010100 4
b00010101 5
#845
b00110001 0
b01000100 4
b00010001 5
#846
b10000001 0
b01001100 4
b00010011 5
#847
b00011010 0
b10100000 4
b10101000 5
#848
b01010001 0
b01000110 4
b00010001 5
#849
b00010001 0
b01010100 4
b00010101 5
#850
b01010001 0
b01000100 4
b00010001 5
#851
b00110001 0
b01010100 4
b00010101 5
#852
b00001000 0
b00001100 4
b10000011 5
#853
b01000001 0
b01000010 4
b00010000 5
#854
b00010001 0
b01010000 4
b00010100 5
#855
b00110001 0
b01000100 4
b00010001 5
#856
b01110001 0
b01001100 4
b00010011 5
#857
b00011101 0
b01011100 4
b11010111 5
#858
b01000001 0
b01000111 4
b00010001 5
#859
b00000001 0
b01010000 4
b00010100 5
#860
b00100001 0
b01000000 4
b00010000 5
#861
b01010001 0
b01001000 4
b00010010 5
#862
b11110110 0
b10010100 4
b01100101 5
#863
b00010000 0
b00111101 4
b00001111 5
#864
b11110001 0
b01000100 4
b00010001 5
#865
b00010000 0
b00111100 4
b00001111 5
#866
b11000001 0
b01000100 4
b00010001 5
#867
b11110011 0
b11110000 4
b00111100 5
#868
b00010000 0
b00111100 4
b00001111 5
#869
b11110001 0
b01000100 4
b00010001 5
#870
b00010000 0
b00111100 4
b00001111 5
#871
b01010001 0
b01000100 4
b00010001 5
#872
b11111100 0
b00010100 4
b11000101 5
#873
b00100000 0
b00111111 4
b00001111 5
#874
b00000001 0
b01001000 4
b00010010 5
#875
b01000001 0
b01000000 4
b00010000 5
#876
b00110001 0
b01010000 4
b00010100 5
#877
b00001101 0
b01001100 4
b11010011 5
#878
b01010001 0
b01000011 4
b00010000 5
#879
b00000001 0
b01010100 4
b00010101 5
#880
b01000001 0
b01000000 4
b00010000 5
#881
b10100001 0
b01010000 4
b00010100 5
#882
b00010001 0
b01101000 4
b00011010 5
#883
b00110001 0
b01000100 4
b00010001 5
#884
b00010001 0
b01001100 4
b00010011 5
#885
b01000001 0
b01000100 4
b00010001 5
#886
b11100001 0
b01010000 4
b00010100 5
#887
b00100010 0
b10111000 4
b00101110 5
#888
b01000001 0
b01001000 4
b00010010 5
#889
b00010001 0
b01010000 4
b00010100 5
#890
b01010001 0
b01000100 4
b00010001 5
#891
b10000001 0
b01010100 4
b00010101 5
#892
b00001001 0
b01100000 4
b10011000 5
#893
b01010001 0
b01000010 4
b00010000 5
#894
b00000001 0
b01010100 4
b00010101 5
#895
b01000001 0
b01000000 4
b00010000 5
#896
b10110001 0
b01010000 4
b00010100 5
#897
b11110100 0
b00101100 4
b01001011 5
#898
b01000000 0
b00111101 4
b00001111 5
#899
b00000001 0
b01010000 4
b00010100 5
#900
b00110001 0
b01000000 4
b00010000 5
#901
b01110001 0
b01001100 4
b00010011 5
#902
b00011111 0
b11011100 4
b11110111 5
#903
b01010001 0
b01000111 4
b00010001 5
#904
b00000001 0
b01010100 4
b00010101 5
#905
b01010001 0
b01000000 4
b00010000 5
#906
b10110001 0
b01010100 4
b00010101 5
#907
b00010011 0
b11101100 4
b00111011 5
#908
b01010001 0
b01000100 4
b00010001 5
#909
b00000001 0
b01010100 4
b00010101 5
#910
b00110001 0
b01000000 4
b00010000 5
#911
b01100001 0
b01001100 4
b00010011 5
#912
b00001010 0
b10011000 4
b10100110 5
#913
b00100001 0
b01000010 4
b00010000 5
#914
b00000001 0
b01001000 4
b00010010 5
#915
b01000001 0
b01000000 4
b00010000 5
#916
b11100001 0
b01010000 4
b00010100 5
#917
b00000111 0
b11111000 4
b01111110 5
#918
b01000001 0
b01000001 4
b00010000 5
#919
b00000001 0
b01010000 4
b00010100 5
#920
b01000001 0
b01000000 4
b00010000 5
#921
b00110001 0
b01010000 4
b00010100 5
#922
b00010110 0
b10001100 4
b01100011 5
#923
b01010001 0
b01000101 4
b00010001 5
#924
b00010001 0
b01010100 4
b00010101 5
#925
b01000001 0
b01000100 4
b00010001 5
#926
b10000001 0
b01010000 4
b00010100 5
#927
b00001000 0
b00100000 4
b10001000 5
#928
b01000001 0
b01000010 4
b00010000 5
#929
b00010001 0
b01010000 4
b00010100 5
