la1_waveform.vcd
$date today $end
$timescale 1 ns $end
$scope module top $end
$var wire 1 0 w_csi_rx_vsync0 $end
$var wire 1 1 w_csi_rx_hsync0 $end
$var wire 1 2 w_csi_rx_dvalid $end
$var wire 11 3 cnt_pixel $end
$var wire 11 4 cnt_row $end
$upscope $end
$enddefinitions $end
#0
$dumpvars
x0
x1
x2
bx 3
bx 4
$end
#0 $dumpon
10
11
02
b00100000101 3
b00000110011 4
#4
12
#5
b00100000110 3
#6
02
b00100000111 3
#18
12
#19
b00100001000 3
#20
02
b00100001001 3
#32
12
#33
02
b00100001010 3
#46
12
#47
b00100001011 3
#48
02
b00100001100 3
#60
12
#61
02
b00100001101 3
#74
12
#75
b00100001110 3
#76
02
b00100001111 3
#87
12
#88
b00100010000 3
#89
02
b00100010001 3
#101
12
#102
02
b00100010010 3
#115
12
#116
b00100010011 3
#117
02
b00100010100 3
#129
12
#130
02
b00100010101 3
#143
12
#144
b00100010110 3
#145
02
b00100010111 3
#157
12
#158
b00100011000 3
#159
02
b00100011001 3
#171
12
#172
02
b00100011010 3
#184
12
#185
b00100011011 3
#186
02
b00100011100 3
#198
12
#199
02
b00100011101 3
#212
12
#213
b00100011110 3
#214
02
b00100011111 3
#226
12
#227
b00100100000 3
#228
02
b00100100001 3
#240
12
#241
02
b00100100010 3
#254
12
#255
b00100100011 3
#256
02
b00100100100 3
#267
12
#268
02
b00100100101 3
#281
12
#282
b00100100110 3
#283
02
b00100100111 3
#295
12
#296
b00100101000 3
#297
02
b00100101001 3
#309
12
#310
02
b00100101010 3
#323
12
#324
b00100101011 3
#325
02
b00100101100 3
#337
12
#338
02
b00100101101 3
#350
12
#351
b00100101110 3
#352
02
b00100101111 3
#364
12
#365
b00100110000 3
#366
02
b00100110001 3
#378
12
#379
02
b00100110010 3
#392
12
#393
b00100110011 3
#394
02
b00100110100 3
#406
12
#407
02
b00100110101 3
#420
12
#421
b00100110110 3
#422
02
b00100110111 3
#433
12
#434
b00100111000 3
#435
02
b00100111001 3
#447
12
#448
02
b00100111010 3
#461
12
#462
b00100111011 3
#463
02
b00100111100 3
#475
12
#476
02
b00100111101 3
#489
12
#490
b00100111110 3
#491
b00100111111 3
#492
01
02
b00101000000 3
#493
b00000000000 3
#1008
11
12
#1009
b00000000001 3
b00000110100 4
#1010
02
b00000000010 3
#1023
12
#1024
b00000000011 3
#1025
02
b00000000100 3
#1037
12
#1038
02
b00000000101 3
#1051
12
#1052
b00000000110 3
#1053
02
b00000000111 3
#1065
12
#1066
b00000001000 3
#1067
02
b00000001001 3
#1079
12
#1080
02
b00000001010 3
#1092
12
#1093
b00000001011 3
#1094
02
b00000001100 3
#1106
12
#1107
02
b00000001101 3
#1120
12
#1121
b00000001110 3
#1122
02
b00000001111 3
#1134
12
#1135
b00000010000 3
#1136
02
b00000010001 3
#1148
12
#1149
02
b00000010010 3
#1162
12
#1163
b00000010011 3
#1164
02
b00000010100 3
#1175
12
#1176
02
b00000010101 3
#1189
12
#1190
b00000010110 3
#1191
02
b00000010111 3
#1203
12
#1204
b00000011000 3
#1205
02
b00000011001 3
#1217
12
#1218
02
b00000011010 3
#1231
12
#1232
b00000011011 3
#1233
02
b00000011100 3
#1245
12
#1246
02
b00000011101 3
#1258
12
#1259
b00000011110 3
#1260
02
b00000011111 3
#1272
12
#1273
b00000100000 3
#1274
02
b00000100001 3
#1286
12
#1287
02
b00000100010 3
#1300
12
#1301
b00000100011 3
#1302
02
b00000100100 3
#1314
12
#1315
02
b00000100101 3
#1328
12
#1329
b00000100110 3
#1330
02
b00000100111 3
#1342
12
#1343
b00000101000 3
#1344
02
b00000101001 3
#1355
12
#1356
02
b00000101010 3
#1369
12
#1370
b00000101011 3
#1371
02
b00000101100 3
#1383
12
#1384
02
b00000101101 3
#1397
12
#1398
b00000101110 3
#1399
02
b00000101111 3
#1411
12
#1412
b00000110000 3
#1413
02
b00000110001 3
#1425
12
#1426
02
b00000110010 3
#1438
12
#1439
b00000110011 3
#1440
02
b00000110100 3
#1452
12
#1453
02
b00000110101 3
#1466
12
#1467
b00000110110 3
#1468
02
b00000110111 3
#1480
12
#1481
b00000111000 3
#1482
02
b00000111001 3
#1494
12
#1495
02
b00000111010 3
#1508
12
#1509
b00000111011 3
#1510
02
b00000111100 3
#1521
12
#1522
02
b00000111101 3
#1535
12
#1536
b00000111110 3
#1537
02
b00000111111 3
#1549
12
#1550
b00001000000 3
#1551
02
b00001000001 3
#1563
12
#1564
02
b00001000010 3
#1577
12
#1578
b00001000011 3
#1579
02
b00001000100 3
#1591
12
#1592
02
b00001000101 3
#1604
12
#1605
b00001000110 3
#1606
02
b00001000111 3
#1618
12
#1619
b00001001000 3
#1620
02
b00001001001 3
#1632
12
#1633
02
b00001001010 3
#1646
12
#1647
b00001001011 3
#1648
02
b00001001100 3
#1660
12
#1661
02
b00001001101 3
#1674
12
#1675
b00001001110 3
#1676
02
b00001001111 3
#1687
12
#1688
b00001010000 3
#1689
02
b00001010001 3
#1701
12
#1702
02
b00001010010 3
#1715
12
#1716
b00001010011 3
#1717
02
b00001010100 3
#1729
12
#1730
02
b00001010101 3
#1743
12
#1744
b00001010110 3
#1745
02
b00001010111 3
#1757
12
#1758
b00001011000 3
#1759
02
b00001011001 3
#1770
12
#1771
02
b00001011010 3
#1784
12
#1785
b00001011011 3
#1786
02
b00001011100 3
#1798
12
#1799
02
b00001011101 3
#1812
12
#1813
b00001011110 3
#1814
02
b00001011111 3
#1826
12
#1827
b00001100000 3
#1828
02
b00001100001 3
#1840
12
#1841
02
b00001100010 3
#1854
12
#1855
b00001100011 3
#1856
02
b00001100100 3
#1867
12
#1868
02
b00001100101 3
#1881
12
#1882
b00001100110 3
#1883
02
b00001100111 3
#1895
12
#1896
b00001101000 3
#1897
02
b00001101001 3
#1909
12
#1910
02
b00001101010 3
#1923
12
#1924
b00001101011 3
#1925
02
b00001101100 3
#1937
12
#1938
02
b00001101101 3
#1950
12
#1951
b00001101110 3
#1952
02
b00001101111 3
#1964
12
#1965
b00001110000 3
#1966
02
b00001110001 3
#1978
12
#1979
02
b00001110010 3
#1992
12
#1993
b00001110011 3
#1994
02
b00001110100 3
#2006
12
#2007
02
b00001110101 3
#2020
12
#2021
b00001110110 3
#2022
02
b00001110111 3
#2033
12
#2034
b00001111000 3
#2035
02
b00001111001 3
#2047
12
#2048
02
b00001111010 3
#2061
12
#2062
b00001111011 3
#2063
02
b00001111100 3
#2075
12
#2076
02
b00001111101 3
#2089
12
#2090
b00001111110 3
#2091
02
b00001111111 3
#2103
12
#2104
b00010000000 3
#2105
02
b00010000001 3
#2116
12
#2117
02
b00010000010 3
#2130
12
#2131
b00010000011 3
#2132
02
b00010000100 3
#2144
12
#2145
02
b00010000101 3
#2158
12
#2159
b00010000110 3
#2160
02
b00010000111 3
#2172
12
#2173
b00010001000 3
#2174
02
b00010001001 3
#2186
12
#2187
02
b00010001010 3
#2199
12
#2200
b00010001011 3
#2201
02
b00010001100 3
#2213
12
#2214
02
b00010001101 3
#2227
12
#2228
b00010001110 3
#2229
02
b00010001111 3
#2241
12
#2242
b00010010000 3
#2243
02
b00010010001 3
#2255
12
#2256
02
b00010010010 3
#2269
12
#2270
b00010010011 3
#2271
02
b00010010100 3
#2282
12
#2283
02
b00010010101 3
#2296
12
#2297
b00010010110 3
#2298
02
b00010010111 3
#2310
12
#2311
b00010011000 3
#2312
02
b00010011001 3
#2324
12
#2325
02
b00010011010 3
#2338
12
#2339
b00010011011 3
#2340
02
b00010011100 3
#2352
12
#2353
02
b00010011101 3
#2366
12
#2367
b00010011110 3
#2368
02
b00010011111 3
#2379
12
#2380
b00010100000 3
#2381
02
b00010100001 3
#2393
12
#2394
02
b00010100010 3
#2407
12
#2408
b00010100011 3
#2409
02
b00010100100 3
#2421
12
#2422
02
b00010100101 3
#2435
12
#2436
b00010100110 3
#2437
02
b00010100111 3
#2449
12
#2450
b00010101000 3
#2451
02
b00010101001 3
#2462
12
#2463
02
b00010101010 3
#2476
12
#2477
b00010101011 3
#2478
02
b00010101100 3
#2490
12
#2491
02
b00010101101 3
#2504
12
#2505
b00010101110 3
#2506
02
b00010101111 3
#2518
12
#2519
b00010110000 3
#2520
02
b00010110001 3
#2532
12
#2533
02
b00010110010 3
#2545
12
#2546
b00010110011 3
#2547
02
b00010110100 3
#2559
12
#2560
02
b00010110101 3
#2573
12
#2574
b00010110110 3
#2575
02
b00010110111 3
#2587
12
#2588
b00010111000 3
#2589
02
b00010111001 3
#2601
12
#2602
02
b00010111010 3
#2615
12
#2616
b00010111011 3
#2617
02
b00010111100 3
#2628
12
#2629
02
b00010111101 3
#2642
12
#2643
b00010111110 3
#2644
02
b00010111111 3
#2656
12
#2657
b00011000000 3
#2658
02
b00011000001 3
#2670
12
#2671
02
b00011000010 3
#2684
12
#2685
b00011000011 3
#2686
02
b00011000100 3
#2698
12
#2699
02
b00011000101 3
#2711
12
#2712
b00011000110 3
#2713
02
b00011000111 3
#2725
12
#2726
b00011001000 3
#2727
02
b00011001001 3
#2739
12
#2740
02
b00011001010 3
#2753
12
#2754
b00011001011 3
#2755
02
b00011001100 3
#2767
12
#2768
02
b00011001101 3
#2781
12
#2782
b00011001110 3
#2783
02
b00011001111 3
#2794
12
#2795
b00011010000 3
#2796
02
b00011010001 3
#2808
12
#2809
02
b00011010010 3
#2822
12
#2823
b00011010011 3
#2824
02
b00011010100 3
#2836
12
#2837
02
b00011010101 3
#2850
12
#2851
b00011010110 3
#2852
02
b00011010111 3
#2864
12
#2865
b00011011000 3
#2866
02
b00011011001 3
#2878
12
#2879
02
b00011011010 3
#2891
12
#2892
b00011011011 3
#2893
02
b00011011100 3
#2905
12
#2906
02
b00011011101 3
#2919
12
#2920
b00011011110 3
#2921
02
b00011011111 3
#2933
12
#2934
b00011100000 3
#2935
02
b00011100001 3
#2947
12
#2948
02
b00011100010 3
#2961
12
#2962
b00011100011 3
#2963
02
b00011100100 3
#2974
12
#2975
02
b00011100101 3
#2988
12
#2989
b00011100110 3
#2990
02
b00011100111 3
#3002
12
#3003
b00011101000 3
#3004
02
b00011101001 3
#3016
12
#3017
02
b00011101010 3
#3030
12
#3031
b00011101011 3
#3032
02
b00011101100 3
#3044
12
#3045
02
b00011101101 3
#3057
12
#3058
b00011101110 3
#3059
02
b00011101111 3
#3071
12
#3072
b00011110000 3
#3073
02
b00011110001 3
#3085
12
#3086
02
b00011110010 3
#3099
12
#3100
b00011110011 3
#3101
02
b00011110100 3
#3113
12
#3114
02
b00011110101 3
#3127
12
#3128
b00011110110 3
#3129
02
b00011110111 3
#3140
12
#3141
b00011111000 3
#3142
02
b00011111001 3
#3154
12
#3155
02
b00011111010 3
#3168
12
#3169
b00011111011 3
#3170
02
b00011111100 3
#3182
12
#3183
02
b00011111101 3
#3196
12
#3197
b00011111110 3
#3198
02
b00011111111 3
#3210
12
#3211
b00100000000 3
#3212
02
b00100000001 3
#3223
12
#3224
02
b00100000010 3
#3237
12
#3238
b00100000011 3
#3239
02
b00100000100 3
#3251
12
#3252
02
b00100000101 3
#3265
12
#3266
b00100000110 3
#3267
02
b00100000111 3
#3279
12
#3280
b00100001000 3
#3281
02
b00100001001 3
#3293
12
#3294
02
b00100001010 3
#3306
12
#3307
b00100001011 3
#3308
02
b00100001100 3
#3320
12
#3321
02
b00100001101 3
#3334
12
#3335
b00100001110 3
#3336
02
b00100001111 3
#3348
12
#3349
b00100010000 3
#3350
02
b00100010001 3
#3362
12
#3363
02
b00100010010 3
#3376
12
#3377
b00100010011 3
#3378
02
b00100010100 3
#3390
12
#3391
02
b00100010101 3
#3403
12
#3404
b00100010110 3
#3405
02
b00100010111 3
#3417
12
#3418
b00100011000 3
#3419
02
b00100011001 3
#3431
12
#3432
02
b00100011010 3
#3445
12
#3446
b00100011011 3
#3447
02
b00100011100 3
#3459
12
#3460
02
b00100011101 3
#3473
12
#3474
b00100011110 3
#3475
02
b00100011111 3
#3486
12
#3487
b00100100000 3
#3488
02
b00100100001 3
#3500
12
#3501
02
b00100100010 3
#3514
12
#3515
b00100100011 3
#3516
02
b00100100100 3
#3528
12
#3529
02
b00100100101 3
#3542
12
#3543
b00100100110 3
#3544
02
b00100100111 3
#3556
12
#3557
b00100101000 3
#3558
02
b00100101001 3
#3569
12
#3570
02
b00100101010 3
#3583
12
#3584
b00100101011 3
#3585
02
b00100101100 3
#3597
12
#3598
02
b00100101101 3
#3611
12
#3612
b00100101110 3
#3613
02
b00100101111 3
#3625
12
#3626
b00100110000 3
#3627
02
b00100110001 3
#3639
12
#3640
02
b00100110010 3
#3652
12
#3653
b00100110011 3
#3654
02
b00100110100 3
#3666
12
#3667
02
b00100110101 3
#3680
12
#3681
b00100110110 3
#3682
02
b00100110111 3
#3694
12
#3695
b00100111000 3
#3696
02
b00100111001 3
#3708
12
#3709
02
b00100111010 3
#3722
12
#3723
b00100111011 3
#3724
02
b00100111100 3
#3735
12
#3736
02
b00100111101 3
#3749
12
#3750
b00100111110 3
#3751
b00100111111 3
#3752
01
02
b00101000000 3
#3753
b00000000000 3
#4095
10
01
02
b00000000000 3
b00000110100 4
